{
  "low_reservoir_warn_point": 20,
  "keypad_lock_status": 0,
  "maxBasal": 3.5,
  "temp_basal": {
    "percent": 100,
    "type": "Units/hour"
  },
  "low_reservoir_warn_type": 0,
  "insulinConcentration": 100,
  "audio_bolus_enable": false,
  "variable_bolus_enable": true,
  "alarm": {
    "volume": 1,
    "mode": 2
  },
  "rf_enable": false,
  "auto_off_duration_hrs": 0,
  "block_enable": false,
  "timeformat": 120,
  "insulin_action_curve": 4,
  "audio_bolus_size": 0,
  "selected_pattern": 0,
  "patterns_enabled": false,
  "maxBolus": 15.0,
  "paradigm_enabled": 1
}
